%YAML 1.1
%TAG !u! tag:unity3d.com,2011:
--- !u!114 &11400000
MonoBehaviour:
  m_ObjectHideFlags: 0
  m_CorrespondingSourceObject: {fileID: 0}
  m_PrefabInstance: {fileID: 0}
  m_PrefabAsset: {fileID: 0}
  m_GameObject: {fileID: 0}
  m_Enabled: 1
  m_EditorHideFlags: 0
  m_Script: {fileID: 11500000, guid: f1b3b4b945939a54ea0b23d3396115fb, type: 3}
  m_Name: Character_SkeletonData
  m_EditorClassIdentifier: 
  atlasAssets:
  - {fileID: 11400000, guid: 618513005ceeb504590c2c3d3a6696b0, type: 2}
  scale: 0.01
  skeletonJSON: {fileID: 4900000, guid: fedb585f0da9ec845b1c80d4d4359175, type: 3}
  isUpgradingBlendModeMaterials: 0
  blendModeMaterials:
    requiresBlendModeMaterials: 1
    applyAdditiveMaterial: 0
    additiveMaterials: []
    multiplyMaterials:
    - pageName: Character.png
      material: {fileID: 2100000, guid: cc3aaac83113e624187b5c6fdcf18b93, type: 2}
    - pageName: Character4.png
      material: {fileID: 2100000, guid: 439f51061534cd446b5c2c2e7d78dca3, type: 2}
    - pageName: Character2.png
      material: {fileID: 2100000, guid: dbeed04df2f41ad4ab126d3a1423c014, type: 2}
    screenMaterials:
    - pageName: Character2.png
      material: {fileID: 2100000, guid: 0f92f6c728221f342b625a94771e4757, type: 2}
  skeletonDataModifiers: []
  fromAnimation: []
  toAnimation: []
  duration: []
  defaultMix: 0.2
  controller: {fileID: 0}
