%YAML 1.1
%TAG !u! tag:unity3d.com,2011:
--- !u!114 &11400000
MonoBehaviour:
  m_ObjectHideFlags: 0
  m_CorrespondingSourceObject: {fileID: 0}
  m_PrefabInstance: {fileID: 0}
  m_PrefabAsset: {fileID: 0}
  m_GameObject: {fileID: 0}
  m_Enabled: 1
  m_EditorHideFlags: 0
  m_Script: {fileID: 11500000, guid: a6b194f808b1af6499c93410e504af42, type: 3}
  m_Name: Character_Atlas
  m_EditorClassIdentifier: 
  atlasFile: {fileID: 4900000, guid: 12c395cea0dd4d147bfc8def9c5a1d37, type: 3}
  materials:
  - {fileID: 2100000, guid: a9d18af3978b2e141b28e0de9fdd27cb, type: 2}
  - {fileID: 2100000, guid: 5678bc7c2300e9446bff803f0c0f83b6, type: 2}
  - {fileID: 2100000, guid: 61e099a8b2f61484ea69be3ab61bf610, type: 2}
  - {fileID: 2100000, guid: c551f4dca8278f1429809dc2c88d9f66, type: 2}
