
TestBehrman.png
size: 2048,2048
format: RGBA8888
filter: Linear,Linear
repeat: none
KakaoTalk_20240322_131024998
  rotate: false
  xy: 2, 2
  size: 1080, 1920
  orig: 1080, 1920
  offset: 0, 0
  index: -1
