%YAML 1.1
%TAG !u! tag:unity3d.com,2011:
--- !u!114 &11400000
MonoBehaviour:
  m_ObjectHideFlags: 0
  m_CorrespondingSourceObject: {fileID: 0}
  m_PrefabInstance: {fileID: 0}
  m_PrefabAsset: {fileID: 0}
  m_GameObject: {fileID: 0}
  m_Enabled: 1
  m_EditorHideFlags: 0
  m_Script: {fileID: 11500000, guid: a6b194f808b1af6499c93410e504af42, type: 3}
  m_Name: TestBehrman_Atlas
  m_EditorClassIdentifier: 
  atlasFile: {fileID: 4900000, guid: 33442b0c063d0ea4087ea2983b623c98, type: 3}
  materials:
  - {fileID: 2100000, guid: 873661f24a468d84d8abdd85c26fafbd, type: 2}
